Model main temperature effect on all sexual violence - adults
…
(
  df_clim_viol
  %>% group_by(country, adm_name)
  %>% summarise(
    range = max(date)-min(date)
  )
)

`summarise()` has grouped output by 'country'. You can override using the
`.groups` argument.

# A tibble: 53 × 3
# Groups:   country [5]
   country adm_name      range  
   <chr>   <chr>         <drtn> 
 1 Lesotho Berea         92 days
 2 Lesotho Butha-Buthe   31 days
 3 Lesotho Leribe        62 days
 4 Lesotho Mafeteng      62 days
 5 Lesotho Maseru        62 days
 6 Lesotho Mohale's Hoek 92 days
 7 Lesotho Mokhotlong     0 days
 8 Lesotho Qacha's Nek   30 days
 9 Lesotho Quthing       30 days
10 Lesotho Thaba-Tseka   31 days
# ℹ 43 more rows
